

country_decisions = {
	phoenix_empire_lay_foundations = {
		major = yes
	
		potential = {
			tag = F38
			has_country_flag = phoenix_empire_palace_build_flag
			NOT = {
				has_global_flag = phoenix_empire_palace_build_1
				has_global_flag = phoenix_empire_palace_build_2
				has_global_flag = phoenix_empire_palace_build_3
				has_global_flag = phoenix_empire_palace_build_4
				has_global_flag = phoenix_empire_palace_build_5
			}
		}
		
		allow = {
			capital_scope = {
				NOT = {
					has_construction = building
					has_construction = missionary
					has_construction = culture
					has_construction = core
				}
			}
			capital_scope = {
				base_production = 8
				has_production_building_trigger = yes
				has_manpower_building_trigger = yes
			}
			artist = 3
			treasury = 400
			adm_power = 100
		}
	
		effect = {
			add_treasury = -400
			add_adm_power = -100
			capital_scope = {
				add_building_construction = {
					building = phoenix_empire_palace_build
					speed = 1
					cost = 0
				}
			}
			hidden_effect = {
				capital_scope = {
					clr_province_flag = phoenix_empire_palace_massive
					clr_province_flag = phoenix_empire_palace_large
				}
				country_event = {
					id = phoenix_empire.101
				}
			}
		}
	}
	phoenix_empire_construct_walls_and_pillars = {
		major = yes
	
		potential = {
			tag = F38
			has_global_flag = phoenix_empire_palace_build_1
		}
		
		allow = {
			capital_scope = {
				NOT = {
					has_construction = building
					has_construction = missionary
					has_construction = culture
					has_construction = core
				}
			}
			artist = 3
			OR = {
				country_or_non_sovereign_subject_holds = 2942 #marble hold
				2942 = { owner = { has_opinion = { who = ROOT value = 150 } } } #marblehold owner relations are 150
			}
			capital_scope = { has_province_modifier = phoenix_empire_palace_foundations }
			if = {
				limit = { capital_scope = { has_province_flag = phoenix_empire_palace_massive } }
				treasury = 2000
			}
			else_if = {
				limit = { capital_scope = { has_province_flag = phoenix_empire_palace_large } }
				treasury = 1500
			}
			else = {
				treasury = 1000
			}
			adm_power = 100
		}
	
		effect = {
			if = {
				limit = { capital_scope = { has_province_flag = phoenix_empire_palace_massive } }
				add_treasury = -2000
				hidden_effect = {
					set_variable = { which = phoenix_empire_palace_wings value = 4 }
				}
			}
			else_if = {
				limit = { capital_scope = { has_province_flag = phoenix_empire_palace_large } }
				add_treasury = -1500
				hidden_effect = {
					set_variable = { which = phoenix_empire_palace_wings value = 3 }
				}
			}
			else = {
				add_treasury = -1000
				hidden_effect = {
					set_variable = { which = phoenix_empire_palace_wings value = 2 }
				}
			}
			add_adm_power = -100
			capital_scope = {
				add_building_construction = {
					building = phoenix_empire_palace_build
					speed = 1
					cost = 0
				}
			}
			hidden_effect = {
				capital_scope = {
					clr_province_flag = phoenix_empire_palace_library_flag
					clr_province_flag = phoenix_empire_palace_ballroom_flag
					clr_province_flag = phoenix_empire_palace_laboratory_flag
					clr_province_flag = phoenix_empire_palace_apartments_flag
					clr_province_flag = phoenix_empire_palace_bazaar_flag
					clr_province_flag = phoenix_empire_palace_stables_flag
					clr_province_flag = phoenix_empire_palace_treasury_flag
					clr_province_flag = phoenix_empire_palace_temple_flag
				}
				country_event = {
					id = phoenix_empire.102
				}
			}
		}
	}
	phoenix_empire_build_the_roof = {
		major = yes
	
		potential = {
			tag = F38
			has_global_flag = phoenix_empire_palace_build_2
		}
		
		allow = {
			capital_scope = {
				NOT = {
					has_construction = building
					has_construction = missionary
					has_construction = culture
					has_construction = core
				}
			}
			any_owned_province = {
				trade_goods = glass
				base_production = 8
				has_manufactory_trigger = yes
				has_production_building_trigger = yes
			}
			any_owned_province = {
				trade_goods = copper
				base_production = 8
				has_manufactory_trigger = yes
				has_production_building_trigger = yes
			}
			artist = 3
			capital_scope = { has_province_modifier = phoenix_empire_palace_skeleton }
			if = {
				limit = { capital_scope = { has_province_flag = phoenix_empire_palace_massive } }
				treasury = 2000
			}
			else_if = {
				limit = { capital_scope = { has_province_flag = phoenix_empire_palace_large } }
				treasury = 1500
			}
			else = {
				treasury = 1000
			}
			adm_power = 100
		}
	
		effect = {
			if = {
				limit = { capital_scope = { has_province_flag = phoenix_empire_palace_massive } }
				add_treasury = -2000
			}
			else_if = {
				limit = { capital_scope = { has_province_flag = phoenix_empire_palace_large } }
				add_treasury = -1500
			}
			else = {
				add_treasury = -1000
			}
			add_adm_power = -100
			capital_scope = {
				add_building_construction = {
					building = phoenix_empire_palace_build
					speed = 1
					cost = 0
				}
			}
			hidden_effect = {
				capital_scope = {
					clr_province_flag = phoenix_empire_palace_dome_flag
					clr_province_flag = phoenix_empire_palace_windows_flag
					clr_province_flag = phoenix_empire_palace_wall_flag
				}
				country_event = {
					id = phoenix_empire.103
				}
			}
		}
	}
	phoenix_empire_furnish_the_palace = {
		major = yes
	
		potential = {
			tag = F38
			has_global_flag = phoenix_empire_palace_build_3
		}
		
		allow = {
			capital_scope = {
				NOT = {
					has_construction = building
					has_construction = missionary
					has_construction = culture
					has_construction = core
				}
			}
			any_owned_province = {
				trade_goods = tropical_wood
				base_production = 8
				has_manufactory_trigger = yes
			}
			any_owned_province = {
				trade_goods = silk
				base_production = 8
				has_manufactory_trigger = yes
				has_production_building_trigger = yes
			}
			any_owned_province = {
				trade_goods = gems
				base_production = 8
				has_manufactory_trigger = yes
				has_production_building_trigger = yes
			}
			artist = 3
			capital_scope = { has_province_modifier = phoenix_empire_empty_palace }
			if = {
				limit = { capital_scope = { has_province_flag = phoenix_empire_palace_massive } }
				treasury = 2000
			}
			else_if = {
				limit = { capital_scope = { has_province_flag = phoenix_empire_palace_large } }
				treasury = 1500
			}
			else = {
				treasury = 1000
			}
			adm_power = 100
		}
	
		effect = {
			if = {
				limit = { capital_scope = { has_province_flag = phoenix_empire_palace_massive } }
				add_treasury = -2000
			}
			else_if = {
				limit = { capital_scope = { has_province_flag = phoenix_empire_palace_large } }
				add_treasury = -1500
			}
			else = {
				add_treasury = -1000
			}
			add_adm_power = -100
			capital_scope = {
				add_building_construction = {
					building = phoenix_empire_palace_build
					speed = 1
					cost = 0
				}
			}
			hidden_effect = {
				capital_scope = {
					clr_province_flag = phoenix_empire_palace_furnishing_imperial_flag
					clr_province_flag = phoenix_empire_palace_furnishing_multicultural_flag
				}
				country_event = {
					id = phoenix_empire.104
				}
			}
		}
	}
	phoenix_empire_plant_the_gardens = {
		major = yes
	
		potential = {
			tag = F38
			has_global_flag = phoenix_empire_palace_build_4
		}
		
		allow = {
			capital_scope = {
				NOT = {
					has_construction = building
					has_construction = missionary
					has_construction = culture
					has_construction = core
				}
			}
			#! Additional requirements?
			artist = 3
			capital_scope = { 
				OR = {
					has_province_modifier = phoenix_empire_furnished_palace
					has_province_modifier = phoenix_empire_furnished_palace_large
					has_province_modifier = phoenix_empire_furnished_palace_massive
				}
			}
			if = {
				limit = { capital_scope = { has_province_flag = phoenix_empire_palace_massive } }
				treasury = 2000
			}
			else_if = {
				limit = { capital_scope = { has_province_flag = phoenix_empire_palace_large } }
				treasury = 1500
			}
			else = {
				treasury = 1000
			}
			adm_power = 100
		}
	
		effect = {
			if = {
				limit = { capital_scope = { has_province_flag = phoenix_empire_palace_massive } }
				add_treasury = -2000
			}
			else_if = {
				limit = { capital_scope = { has_province_flag = phoenix_empire_palace_large } }
				add_treasury = -1500
			}
			else = {
				add_treasury = -1000
			}
			add_adm_power = -100
			capital_scope = {
				add_building_construction = {
					building = phoenix_empire_palace_build
					speed = 1
					cost = 0
				}
			}
			hidden_effect = {
				capital_scope = {
					clr_province_flag = phoenix_empire_palace_gardens_huntinggrounds_flag
					clr_province_flag = phoenix_empire_palace_gardens_paradisial_flag
					clr_province_flag = phoenix_empire_palace_gardens_watergardens_flag
					clr_province_flag = phoenix_empire_palace_gardens_statues_flag
				}
				country_event = {
					id = phoenix_empire.105
				}
			}
		}
	}
}