country_decisions = {
	begin_land_survey = {
		major = yes
		potential = {
			high_esmar_area = {
				type = all
				owned_by = ROOT
			}
			culture = silver_dwarf
			NOT = { has_country_flag = land_survey_started }
			NOT = { has_country_flag = land_survey_completed }
			has_country_modifier = dwarven_administration
		}
		
		provinces_to_highlight = {
			high_esmar_area = {
				type = all
				owned_by = ROOT
				OR = {	
					NOT = { is_state_core = ROOT }
					has_construction = building
				}
			}
		}
		
		allow = {
			high_esmar_area = {
				type = all
				is_state_core = ROOT
				NOT = { has_construction = building }
			}
			mission_completed = A73_land_survey
			NOT = { num_of_rebel_armies = 1 }
			is_at_war = no
			mil_power = 50
			adm_power = 50
			dip_power = 50
			treasury = 400
		}
		
		effect = {
			country_event = { id = silverforge.2 days = 730 }
			add_mil_power = -50
			add_adm_power = -50
			add_dip_power = -50
			add_treasury = -400
			set_country_flag = land_survey_started
		}
		ai_will_do = {
			factor = 400
			
		}
	}

#base surface mine
	construct_surface_mine0 = {
		major = yes
		potential = {
			has_country_flag = land_survey_complete
			culture = silver_dwarf
		}
		
		provinces_to_highlight = {
			is_state_core = ROOT
			NOT = { 
				OR = { 
					has_terrain = marsh
					has_terrain = city_terrain
					has_terrain = cavern
					has_terrain = dwarven_hold_surface
					has_terrain = dwarven_hold
					has_terrain = dwarven_road
					has_province_flag = build_surface_mine0
					has_province_flag = surface_mine0
					has_province_flag = surface_mine1
					has_province_flag = surface_mine2
					has_province_flag = surface_mine3
					has_province_flag = surface_mine4
					has_province_flag = surface_mine5
					has_province_flag = surface_mine6
					has_province_modifier = surface_mine7
				}
			}
		}
		
		allow = {
			custom_trigger_tooltip = {
				tooltip = silverforge_tooltip_1_tt
				OR = {
					any_hired_mercenary_company = {
						template = merc_carver_cartel_guns
						location = {				
							is_state_core = ROOT
							NOT = { 
								OR = { 
									has_terrain = marsh
									has_terrain = city
									has_terrain = cavern
									has_terrain = dwarven_hold_surface
									has_terrain = dwarven_hold
									has_terrain = dwarven_road
									has_province_flag = build_surface_mine0
									has_province_flag = surface_mine0
									has_province_flag = surface_mine1
									has_province_flag = surface_mine2
									has_province_flag = surface_mine3
									has_province_flag = surface_mine4
									has_province_flag = surface_mine5
									has_province_flag = surface_mine6
									has_province_modifier = surface_mine7
								}
							}
						}
					}
					any_hired_mercenary_company = {
						template = merc_carver_cartel_corps
						location = {				
							is_state_core = ROOT
							NOT = { 
								OR = { 
									has_terrain = marsh
									has_terrain = city
									has_terrain = cavern
									has_terrain = dwarven_hold_surface
									has_terrain = dwarven_hold
									has_terrain = dwarven_road
									has_province_flag = build_surface_mine0
									has_province_flag = surface_mine0
									has_province_flag = surface_mine1
									has_province_flag = surface_mine2
									has_province_flag = surface_mine3
									has_province_flag = surface_mine4
									has_province_flag = surface_mine5
									has_province_flag = surface_mine6
									has_province_modifier = surface_mine7
								}
							}
						}
					}
				}
			}
			has_country_modifier = dwarven_administration
			has_country_flag = land_survey_complete
			mission_completed = A73_found_carver
			NOT = { num_of_rebel_armies = 1 }
			is_at_war = no
			treasury = 200
		}
		
		effect = {
			custom_tooltip = silverforge_tooltip_2_tt
			hidden_effect = {
				every_neighbor_country = {
					add_opinion = {
						who = A73
						modifier = aggressive_mining
					}
#					set_variable = { which = count value = 5 }
#					while = {
#						limit = {
#							check_variable = { which = count value = 1 }
#						}
#						subtract_variable = { which = count value = 1 }
#						add_opinion = { 
#							who = ROOT
#							modifier = aggressive_expansion
#						}
#					}
				}
			}
			add_treasury = -200
			hidden_effect = {
				if = {
					limit = { NOT = { has_country_flag = country_orc_recruits } }
					random_hired_mercenary_company = {
						limit = { template = merc_carver_cartel_guns }
						location = {
							set_province_flag = build_surface_mine0
						}
					}
				}
				else = {
					random_hired_mercenary_company = {
						limit = { template = merc_carver_cartel_corps }
						location = {
							set_province_flag = build_surface_mine0
						}
					}
				}
			}
		}	
		ai_will_do = {
			factor = 400
		}
	}

#Serial Service Winches
	construct_surface_mine1 = {
		major = no
		potential = {
			has_country_flag = land_survey_complete
			culture = silver_dwarf
			mission_completed = A73_winches
		}
		
		provinces_to_highlight = {
			had_province_flag = {
				flag = surface_mine0
				days = 365
			}
		}
		
		allow = {
			any_owned_province = { 	
				had_province_flag = {
					flag = surface_mine0
					days = 365
				}
				base_production = 10
			}
			has_country_modifier = dwarven_administration
			has_country_flag = land_survey_complete
			NOT = { has_country_flag = silverforge_diggy_event_open }
			NOT = { num_of_rebel_armies = 1 }
			is_at_war = no
			treasury = 50
		}
		
		effect = {
			set_country_flag = silverforge_diggy_event_open
			add_treasury = -50
			random_owned_province = {
				limit = {
					had_province_flag = {
						flag = surface_mine0
						days = 365
					}
					base_production = 10
				}
				province_event = { id = diggy_surface_mine.2 days = 90 }
			}
		}
		ai_will_do = {
			factor = 400
		}
	}

#Terraced Housing
	construct_surface_mine2 = {
		major = no
		potential = {
			has_country_flag = land_survey_complete
			culture = silver_dwarf
			mission_completed = A73_terraced_housing
		}
		
		provinces_to_highlight = {
			had_province_flag = {
				flag = surface_mine1
				days = 365
			}
		}
		
		allow = {
			any_owned_province = { 	
				had_province_flag = {
					flag = surface_mine1
					days = 365
				}
				base_tax = 10
			}
			has_country_modifier = dwarven_administration
			has_country_flag = land_survey_complete
			NOT = { has_country_flag = silverforge_diggy_event_open }
			NOT = { num_of_rebel_armies = 1 }
			is_at_war = no
			treasury = 150
		}
		
		effect = {
			set_country_flag = silverforge_diggy_event_open
			add_treasury = -150
			random_owned_province = {
				limit = {
					had_province_flag = {
						flag = surface_mine1
						days = 365
					}
					base_tax = 10
				}
				province_event = { id = diggy_surface_mine.3 days = 90 }
			}
		}
		ai_will_do = {
			factor = 400
		}
	}

#Terraced Farms
	construct_surface_mine3 = {
		major = no
		potential = {
			has_country_flag = land_survey_complete
			culture = silver_dwarf
			mission_completed = A73_terraced_farms
		}
		
		provinces_to_highlight = {
			had_province_flag = {
				flag = surface_mine2
				days = 365
			}
		}
		
		allow = {
			any_owned_province = { 	
				had_province_flag = {
					flag = surface_mine2
					days = 365
				}
				base_production = 15
			}
			has_country_modifier = dwarven_administration
			has_country_flag = land_survey_complete
			NOT = { has_country_flag = silverforge_diggy_event_open }
			NOT = { num_of_rebel_armies = 1 }
			is_at_war = no
			treasury = 300
		}
		
		effect = {
			set_country_flag = silverforge_diggy_event_open
			add_treasury = -300
			random_owned_province = {
				limit = {
					had_province_flag = {
						flag = surface_mine2
						days = 365
					}
					base_production = 15
				}
				province_event = { id = diggy_surface_mine.4 days = 90 }
			}
		}
		ai_will_do = {
			factor = 400
		}
	}

#Carver Monopoly on Power
	carver_monopoly = {
		major = yes
		potential = {
			has_country_flag = land_survey_complete
			NOT = { has_country_modifier = carver_monopoly }
			culture = silver_dwarf
			mission_completed = A73_carver_influence
		}

		allow = {
			NOT = { has_country_modifier = carver_monopoly }
			has_country_modifier = dwarven_administration
			has_country_flag = land_survey_complete
			OR = {
				mission_completed = A73_complete_hold
				AND = {
					has_disaster = estate_burghers_disaster
					had_country_flag = {
						flag = burghers_estate_in_power
						days = 3650
					}
				}
			}
		}

		effect = {
			add_country_modifier = {
				name = carver_monopoly
				duration = -1
			}
		}
		ai_will_do = {
			factor = 400
		}
	}
}