
namespace = lake

#Federation - Linguistic Academy
country_event = {
	id = lake.1
	title = lake.1.t
	desc = lake.1.d
	picture = STREET_SPEECH_eventPicture
	
	is_triggered_only = yes
	
	trigger = {
		has_country_modifier = lake_federation_member
	}
	
	#Join it
	option = {
		name = lake.1.a
		ai_chance = { factor = 100 }
		add_adm_power = -50
		add_dip_power = -50
		add_country_modifier = {
			name = federation_linguistic_academy
			duration = -1
		}
		lake_federation_gain_1_points = yes
	}
	#Don't
	option = {
		name = lake.1.b
		ai_chance = { factor = 5 }
		add_adm_power = 200
		add_dip_power = 200
	}
}

#Federation - The islander declaration
country_event = {
	id = lake.2
	title = lake.2.t
	desc = lake.2.d
	picture = STREET_SPEECH_eventPicture
	
	is_triggered_only = yes
	
	trigger = {
		has_country_modifier = lake_federation_member
	}
	
	#Join it
	option = {
		name = lake.2.a
		ai_chance = { factor = 100 }
		add_adm_power = -50
		add_dip_power = -50
		add_country_modifier = {
			name = federation_islander_declaration
			duration = -1
		}
		lake_federation_gain_1_points = yes
	}
	#Don't
	option = {
		name = lake.2.b
		ai_chance = { factor = 5 }
		add_adm_power = 200
		add_dip_power = 200
	}
}

#Federation - Clothing for everyone
country_event = {
	id = lake.3
	title = lake.3.t
	desc = lake.3.d
	picture = STREET_SPEECH_eventPicture
	
	is_triggered_only = yes
	
	trigger = {
		has_country_modifier = lake_federation_member
	}
	
	#Join it
	option = {
		name = lake.3.a
		ai_chance = { factor = 100 }
		custom_tooltip = clothing_for_everyone_tooltip
		hidden_effect = {
			every_owned_province = {
				limit = { 
					OR = {
						region = southern_isles_region
						region = northern_isles_region
					}
					OR = {
						trade_goods = cloth
						trade_goods = wool
						trade_goods = silk
					}
				}
				add_base_production = 1
				random = {
					chance = 50
					add_base_production = 1
				}
			}
		}
	}
}

#Federation - Agricultural Reform
country_event = {
	id = lake.4
	title = lake.4.t
	desc = lake.4.d
	picture = STREET_SPEECH_eventPicture
	
	is_triggered_only = yes
	
	trigger = {
		has_country_modifier = lake_federation_member
	}
	
	#Join it
	option = {
		name = lake.4.a
		ai_chance = { factor = 100 }
		custom_tooltip = agricultural_reform_tooltip
		hidden_effect = {
			every_owned_province = {
				limit = { 
					OR = {
						region = southern_isles_region
						region = northern_isles_region
					}
					trade_goods = grain
				}
				add_base_production = 1
				random = {
					chance = 50
					add_base_production = 1
				}
			}
		}
	}
}

#Federation - Preservation Act
country_event = {
	id = lake.5
	title = lake.5.t
	desc = lake.5.d
	picture = STREET_SPEECH_eventPicture
	
	is_triggered_only = yes
	
	trigger = {
		has_country_modifier = lake_federation_member
	}
	
	#Join it
	option = {
		name = lake.5.a
		ai_chance = { factor = 100 }
		custom_tooltip = preservation_act_tooltip
		hidden_effect = {
			every_owned_province = {
				limit = { 
					OR = {
						region = southern_isles_region
						region = northern_isles_region
					}
					trade_goods = salt
				}
				add_base_production = 2
				random = {
					chance = 50
					add_base_production = 1
				}
			}
		}
	}
}

#Federation - Judiciary system
country_event = {
	id = lake.6
	title = lake.6.t
	desc = lake.6.d
	picture = STREET_SPEECH_eventPicture
	
	is_triggered_only = yes
	
	trigger = {
		has_country_modifier = lake_federation_member
	}
	
	#Join it
	option = {
		name = lake.6.a
		ai_chance = { factor = 100 }
		add_adm_power = -50
		add_dip_power = -50
		add_country_modifier = {
			name = federation_judiciary_system
			duration = -1
		}
		lake_federation_gain_1_points = yes
	}
	#Don't
	option = {
		name = lake.6.b
		ai_chance = { factor = 5 }
		add_adm_power = 200
		add_dip_power = 200
	}
}

#Federation - Federation Artisan
country_event = {
	id = lake.7
	title = lake.7.t
	desc = lake.7.d
	picture = STREET_SPEECH_eventPicture
	
	is_triggered_only = yes
	
	trigger = {
		has_country_modifier = lake_federation_member
	}
	
	
	option = {
		name = lake.7.a
		ai_chance = { factor = 100 }
		custom_tooltip = federation_artisan_tooltip
		hidden_effect = {
			every_owned_province = {
				limit = { 
					OR = {
						region = southern_isles_region
						region = northern_isles_region
					}
					OR = {
						trade_goods = wine
						trade_goods = glass
						trade_goods = gems
						trade_goods = dyes
						trade_goods = silk
					}
				}
				add_base_production = 2
			}
		}
	}
}

#Federation - Implement Regulation (fish)
country_event = {
	id = lake.8
	title = lake.8.t
	desc = lake.8.d
	picture = STREET_SPEECH_eventPicture
	
	is_triggered_only = yes
	
	trigger = {
		has_country_modifier = lake_federation_member
	}
	
	#Join it
	option = {
		name = lake.8.a
		ai_chance = { factor = 100 }
		custom_tooltip = implement_fish_regulation_tooltip
		hidden_effect = {
			every_owned_province = {
				limit = { 
					OR = {
						region = southern_isles_region
						region = northern_isles_region
					}
					OR = {
						trade_goods = fish
					}
				}
				add_base_production = 1
				add_base_tax = 1
			}
		}
	}
}

#Federation - Every man a Landlord
country_event = {
	id = lake.9
	title = lake.9.t
	desc = lake.9.d
	picture = STREET_SPEECH_eventPicture
	
	is_triggered_only = yes
	
	trigger = {
		has_country_modifier = lake_federation_member
	}
	
	#Join it
	option = {
		name = lake.9.a
		ai_chance = { factor = 100 }
		custom_tooltip = every_man_a_landlord_tooltip
		hidden_effect = {
			every_owned_province = {
				limit = { 
					OR = {
						region = southern_isles_region
						region = northern_isles_region
					}
					has_terrain = city_terrain
				}
				add_base_manpower = 1
				add_base_tax = 1
			}
		}
	}
}

#Federation - The Federation Needs (paper)
country_event = {
	id = lake.10
	title = lake.10.t
	desc = lake.10.d
	picture = STREET_SPEECH_eventPicture
	
	is_triggered_only = yes
	
	trigger = {
		has_country_modifier = lake_federation_member
	}
	
	#Join it
	option = {
		name = lake.10.a
		ai_chance = { factor = 100 }
		custom_tooltip = the_federation_needs_tooltip
		hidden_effect = {
			every_owned_province = {
				limit = { 
					OR = {
						region = southern_isles_region
						region = northern_isles_region
					}
					trade_goods = paper
				}
				add_base_production = 1
				random = {
					chance = 50
					add_base_tax = 1
				}
			}
		}
	}
}

#Federation - ROOT want to unify the federation
country_event = {
	id = lake.11
	title = lake.11.t
	desc = lake.11.d
	picture = STREET_SPEECH_eventPicture
	
	is_triggered_only = yes
	
	trigger = {
		has_country_modifier = lake_federation_member
	}
	
	#Good to known
	option = {
		name = lake.11.a
		ai_chance = { factor = 100 }
		swap_non_generic_missions = yes
	}
}

#Federation - Free Trade Agreement
country_event = {
	id = lake.12
	title = lake.12.t
	desc = lake.12.d
	picture = STREET_SPEECH_eventPicture
	
	is_triggered_only = yes
	
	trigger = {
		has_country_modifier = lake_federation_member
	}
	
	#Join it
	option = {
		name = lake.12.a
		ai_chance = { factor = 100 }
		add_adm_power = -50
		add_dip_power = -50
		add_country_modifier = {
			name = federation_free_trade
			duration = -1
		}
		add_mercantilism = -20
		lake_federation_gain_1_points = yes
	}
	#Don't
	option = {
		name = lake.12.b
		ai_chance = { factor = 5 }
		add_adm_power = 200
		add_dip_power = 200
		add_mercantilism = 10
		lake_federation_lose_1_points = yes
	}
}

#Federation - The Place of Everyone (fighter or not)
country_event = {
	id = lake.13
	title = lake.13.t
	desc = lake.13.d
	picture = STREET_SPEECH_eventPicture
	
	is_triggered_only = yes
	
	trigger = {
		has_country_modifier = lake_federation_member
	}
	
	#Fighter
	option = {
		name = lake.13.a
		ai_chance = { 
			factor = 30
			
			modifier = {
				factor = 5
				religion = kodave_followers
			}
			
			modifier = {
				factor = 10
				
				any_owned_province = {
					OR = {
						province_id = 5302
						province_id = 5301
						province_id = 5300
						province_id = 5305
						
						province_id = 5285
						province_id = 5284
						province_id = 5283
						
						province_id = 5262
						province_id = 5263
						province_id = 5261
						province_id = 5264
						province_id = 5260
						province_id = 5259
						
						province_id = 5225
						province_id = 5224
						province_id = 5226
					}
				}
			}
		}
		add_mil_power = -50
		custom_tooltip = join_federation_fighter_tooltip
		add_country_modifier = {
			name = federation_fighter
			duration = -1
		}
		lake_federation_gain_5_points = yes
	}
	#Subventionner
	option = {
		name = lake.13.b
		ai_chance = { 
			factor = 75
			
			modifier = {
				factor = 5
				religion = enuuk_followers
			}
		}
		add_dip_power = -50
		custom_tooltip = join_federation_subventionner_tooltip
		add_country_modifier = {
			name = federation_subventionner
			duration = -1
		}
		lake_federation_gain_5_points = yes
	}
}

#Federation - Soldier First
country_event = {
	id = lake.14
	title = lake.14.t
	desc = lake.14.d
	picture = STREET_SPEECH_eventPicture
	
	is_triggered_only = yes
	
	trigger = {
		has_country_modifier = lake_federation_member
	}
	
	#Join it
	option = {
		name = lake.14.a
		ai_chance = { factor = 100 }
		custom_tooltip = soldier_first_tooltip
		hidden_effect = {
			every_owned_province = {
				limit = { 
					OR = {
						region = southern_isles_region
						region = northern_isles_region
					}
					OR = {
						trade_goods = iron
						trade_goods = copper
					}
				}
				add_base_production = 2
				random = {
					chance = 30
					add_base_tax = 1
				}
			}
		}
	}
}

#Federation - The FROM military reform
country_event = {
	id = lake.15
	title = lake.15.t
	desc = lake.15.d
	picture = STREET_SPEECH_eventPicture
	
	is_triggered_only = yes
	
	trigger = {
		has_country_modifier = lake_federation_member
	}
	
	#Join it
	option = {
		name = lake.15.a
		ai_chance = { factor = 100 }
		add_prestige = 5
		add_country_modifier = {
			name = federation_military_reform
			duration = -1
		}
	}
}

#Federation - Mainland Operations
country_event = {
	id = lake.16
	title = lake.16.t
	desc = lake.16.d
	picture = STREET_SPEECH_eventPicture
	
	is_triggered_only = yes
	
	trigger = {
		has_country_modifier = lake_federation_member
	}
	
	#Join it
	option = {
		name = lake.16.a
		ai_chance = { factor = 50 }
		add_adm_power = -50
		add_dip_power = -50
		add_country_modifier = {
			name = federation_mainland_operation
			duration = -1
		}
	}
	#Don't
	option = {
		name = lake.16.b
		ai_chance = { factor = 50 }
		add_adm_power = 200
		add_dip_power = 200
	}
}

#Marine Choice
country_event = {
	id = lake.17
	title = lake.17.t
	desc = lake.17.d
	picture = STREET_SPEECH_eventPicture
	
	is_triggered_only = yes
	
	trigger = {
		has_country_modifier = lake_federation_member
	}
	
	#Military
	option = {
		name = lake.17.a
		ai_chance = { factor = 40 }
		add_country_modifier = {
			name = lake_military_marine
			duration = -1
		}
	}
	#Commercial
	option = {
		name = lake.17.b
		ai_chance = { factor = 60 }
		add_country_modifier = {
			name = lake_commercial_marine
			duration = -1
		}
	}
}

# # Encourage pirate or no
# country_event = {
	# id = lake.18
	# title = lake.18.t
	# desc = lake.18.d
	# picture = STREET_SPEECH_eventPicture
	
	# is_triggered_only = yes
	
	# trigger = {
		# has_country_modifier = lake_federation_member
	# }
	
	# # finance
	# option = {
		# name = lake.18.a
		# ai_chance = { 
			# factor = 30
			
			# modifier = {
				# factor = 100
				
				# NOT = { any_known_country = { has_country_modifier = lake_letter_of_mark } }
			# }
		# }
		# trigger = {
			# any_owned_province = {
				# region = northern_isles_region
				# region = southern_isles_region
				# has_port = yes
				# is_capital = no
			# }
		# }
		# add_country_modifier = {
			# name = lake_letter_of_mark
			# duration = -1
		# }
		# every_owned_province = {
			# limit = { has_province_modifier = lake_pirate_heaven }
			# remove_province_modifier = lake_pirate_heaven
			# add_permanent_province_modifier = {
				# name = lake_pirate_heaven_financed
				# duration = -1
			# }
		# }
	# }
	# # No
	# option = {
		# name = lake.18.b
		# ai_chance = { factor = 70 }
		# if = {
			# limit = { ai = no }
			# random = {
				# chance = 40
				# reduce_stability_or_adm_power = yes
			# }
		# }
		# lake_federation_gain_2_points = yes
	# }
# }

#Federation - The Pirate Act
country_event = {
	id = lake.19
	title = lake.19.t
	desc = lake.19.d
	picture = STREET_SPEECH_eventPicture
	
	is_triggered_only = yes
	
	trigger = {
		has_country_modifier = lake_federation_member
	}
	
	option = {
		name = lake.19.a
		ai_chance = { factor = 40 }
		if = {
			limit = { has_country_modifier = lake_letter_of_mark }
			lake_federation_lose_10_points = yes
			custom_tooltip = lake_letter_of_mark_tooltip
		}
		else = {
			add_prestige = 5
		}
	}
}

#FROM Ask for War Mandat
country_event = {
	id = lake.20
	title = lake.20.t
	desc = lake.20.d
	picture = STREET_SPEECH_eventPicture
	goto = capital
	is_triggered_only = yes
	
	trigger = {
		has_country_modifier = lake_federation_member
	}
	
	immediate = {
		hidden_effect = {
			if = {
				limit = { ai = no }
				FROM = {
					capital_scope = {
						save_event_target_as = capital
					}
					if = {
						limit = { any_ally = { NOT = { has_country_flag = ally@FROM } } }
						random_ally = { limit = { NOT = { has_country_flag = ally@FROM } } set_country_flag = ally@FROM save_event_target_as = ally1 }
					}
					if = {
						limit = { any_ally = { NOT = { has_country_flag = ally@FROM } } }
						random_ally = { limit = { NOT = { has_country_flag = ally@FROM } } set_country_flag = ally@FROM save_event_target_as = ally2 }
					}
					if = {
						limit = { any_ally = { NOT = { has_country_flag = ally@FROM } } }
						random_ally = { limit = { NOT = { has_country_flag = ally@FROM } } set_country_flag = ally@FROM save_event_target_as = ally3 }
					}
					if = {
						limit = { any_ally = { NOT = { has_country_flag = ally@FROM } } }
						random_ally = { limit = { NOT = { has_country_flag = ally@FROM } } set_country_flag = ally@FROM save_event_target_as = ally4 }
					}
					if = {
						limit = { any_rival_country = { NOT = { has_country_flag = rival@FROM } } }
						random_rival_country = { limit = { NOT = { has_country_flag = rival@FROM } }  set_country_flag = rival@FROM  save_event_target_as = rival1 }
					}
					if = {
						limit = { any_rival_country = { NOT = { has_country_flag = rival@FROM } } }
						random_rival_country = { limit = { NOT = { has_country_flag = rival@FROM } }  set_country_flag = rival@FROM  save_event_target_as = rival2 }
					}
					if = {
						limit = { any_rival_country = { NOT = { has_country_flag = rival@FROM } } }
						random_rival_country = { limit = { NOT = { has_country_flag = rival@FROM } }  set_country_flag = rival@FROM  save_event_target_as = rival3 }
					}
				}
				set_country_flag = recently_asked_war_right
			}
		}
	}
	

	after = {
		hidden_effect = {
			if = {
				limit = { ai = no }
				FROM = {
					every_known_country = {
						limit = { OR = { has_country_flag = rival@FROM has_country_flag = ally@FROM } }
						clr_country_flag = rival@FROM
						clr_country_flag = rival1@FROM
						clr_country_flag = rival2@FROM
						clr_country_flag = rival3@FROM
						clr_country_flag = ally@FROM
						clr_country_flag = ally1@FROM
						clr_country_flag = ally2@FROM
						clr_country_flag = ally3@FROM
						clr_country_flag = ally4@FROM
					}
				}
			}
		}
	}
	#Give them
	option = {
		name = lake.20.a
		ai_chance = { 
			factor = 65
			
			modifier = {
				factor = 2
				ai_attitude = {
					who = FROM
					attitude = attitude_friendly
				}
			}
			
			modifier = {
				factor = 2
				ai_attitude = {
					who = FROM
					attitude = attitude_protective
				}
			}
			
			modifier = {
				factor = 5
				ai_attitude = {
					who = FROM
					attitude = attitude_allied
				}
			}
			
			modifier = {
				factor = 1.5
				has_opinion = {
					who = FROM
					value = 50
				}
			}
			
			modifier = {
				factor = 1.8
				has_opinion = {
					who = FROM
					value = 100
				}
			}
			
			modifier = {
				factor = 2
				has_opinion = {
					who = FROM
					value = 150
				}
			}
			
			modifier = {
				factor = 2.5
				has_opinion = {
					who = FROM
					value = 180
				}
			}
			modifier = {
				factor = 2
				ruler_has_personality = intricate_web_weaver_personality
			}
			modifier = {
				factor = 2
				ruler_has_personality = expansionist_personality
			}
			modifier = {
				factor = 2
				ruler_has_personality = conqueror_personality
			}
			modifier = {
				factor = 2
				ruler_has_personality = malevolent_personality
			}
			modifier = {
				factor = 2
				ruler_has_personality = naive_personality
			}
			modifier = {
				factor = 0
				FROM = { has_casus_belli_against = ROOT }
			}
		}
		if = {
			limit = { ai = no }
			custom_tooltip = war_rights_tooltip
		}
		FROM = { country_event = { id = lake.21 } }
	}
	
	#Don't give them
	option = {
		name = lake.20.b
		ai_chance = { 
			factor = 35
			
			modifier = {
				factor = 100
				is_rival = FROM
			}
			
			modifier = {
				factor = 2
				ai_attitude = {
					who = FROM
					attitude = attitude_hostile
				}
			}
			modifier = {
				factor = 1.8
				ai_attitude = {
					who = FROM
					attitude = attitude_outraged
				}
			}
			
			modifier = {
				factor = 1.5
				NOT = {
					has_opinion = {
						who = FROM
						value = 0
					}
				}
			}
			
			modifier = {
				factor = 1.5
				NOT = {
					has_opinion = {
						who = FROM
						value = -50
					}
				}
			}
			
			modifier = {
				factor = 1.5
				NOT = {
					has_opinion = {
						who = FROM
						value = -100
					}
				}
			}
			modifier = {
				factor = 2
				ruler_has_personality = incorruptible_personality
			}
			modifier = {
				factor = 2
				ruler_has_personality = kind_hearted_personality
			}
			modifier = {
				factor = 2
				ruler_has_personality = cruel_personality
			}
			modifier = {
				factor = 2
				ruler_has_personality = just_personality
			}
			modifier = {
				factor = 2
				ruler_has_personality = righteous_personality
			}
		}
		FROM = { country_event = { id = lake.22 } }
	}
}

#Federation Leader gave us war mandat
country_event = {
	id = lake.21
	title = lake.21.t
	desc = lake.21.d
	picture = STREET_SPEECH_eventPicture
	
	is_triggered_only = yes
	
	trigger = {
		has_country_modifier = lake_federation_member
	}
	
	#finance
	option = {
		name = lake.21.a
		ai_chance = { factor = 40 }
		add_prestige = 5
		add_country_modifier = {
			name = federation_war_mandat
			duration = -1
		}
	}
}

#Federation Leader deny war mandat
country_event = {
	id = lake.22
	title = lake.22.t
	desc = lake.22.d
	picture = STREET_SPEECH_eventPicture
	
	is_triggered_only = yes
	
	trigger = {
		has_country_modifier = lake_federation_member
	}
	
	#finance
	option = {
		name = lake.22.a
		ai_chance = { factor = 40 }
		add_prestige = -5
	}
}

#Lose war mandat upon declaring war against federation member
country_event = {
	id = lake.23
	title = lake.23.t
	desc = lake.23.d
	picture = STREET_SPEECH_eventPicture
	
	is_triggered_only = yes
	
	trigger = {
		has_country_modifier = lake_federation_member
		has_country_modifier = federation_war_mandat
	}
	
	#Loose
	option = {
		name = lake.23.a
		ai_chance = { factor = 40 }
		remove_country_modifier = federation_war_mandat
	}
}

#Join the federation unification or not
country_event = {
	id = lake.27
	title = lake.27.t
	desc = lake.27.d
	picture = STREET_SPEECH_eventPicture
	
	is_triggered_only = yes
	
	trigger = {
		has_country_modifier = lake_federation_member
	}
	
	immediate = {
		log = "Country to be annexed : [Root.GetName]"
	}
	
	after = {
		log = "Country annexed : [Root.GetName]"
		hidden_effect = {
			random_known_country = {
				limit = { 
					has_country_modifier = lake_federation_member
					OR = {
						AND = {
							is_subject = yes
							OR = {
								overlord = { has_country_modifier = lake_federation_member }
								overlord = { tag = J33 }
							}
						}
						is_subject = no
					}
				}
				country_event = { id = lake.27 days = 4 random = 2 }
			}
		}
	}
	
	#Yes
	option = {
		name = lake.27.a
		ai_chance = { factor = 100 }
		hidden_effect = {
			export_to_variable = {
				which = treasuryAvailable
				value = treasury
				who = ROOT
			}
			export_to_variable = {
				which = manpowerAvailable
				value = manpower
				who = ROOT
			}
			currency_effect = { currency=treasury takeFrom=ROOT addTo=J33 which=treasuryAvailable }
			currency_effect = { currency=manpower takeFrom=ROOT addTo=J33 which=manpowerAvailable }
		}
		every_owned_province = {
			add_core = J33
			cede_province = J33
		}
	}
	
	#No
	option = {
		name = lake.27.b
		ai_chance = { factor = 0 }
		trigger = { is_lake_federation_leader = no }
		remove_country_modifier = lake_federation_member
		every_owned_province = {
			add_permanent_claim = J33
		}
		swap_non_generic_missions = yes
	}
}

#Crisis in the federation start
country_event = {
	id = lake.28
	title = lake.28.t
	desc = lake.28.d
	picture = STREET_SPEECH_eventPicture
	
	is_triggered_only = yes
	
	trigger = {
		has_country_modifier = lake_federation_member
	}
	
	option = {
		name = lake.28.a
		ai_chance = { factor = 100 }
		reduce_stability_or_adm_power = yes
	}
}

#Crisis in the federation end
country_event = {
	id = lake.29
	title = lake.29.t
	desc = lake.29.d
	picture = STREET_SPEECH_eventPicture
	
	is_triggered_only = yes
	
	trigger = {
		has_country_modifier = lake_federation_member
	}
	
	option = {
		name = lake.29.a
		ai_chance = { factor = 100 }
		add_stability_or_adm_power = yes
		random = {
			chance = 50
			add_stability_or_adm_power = yes
		}
	}
}

#Citizen Definition
country_event = {
	id = lake.30
	title = lake.30.t
	desc = lake.30.d
	picture = STREET_SPEECH_eventPicture
	
	is_triggered_only = yes
	
	trigger = {
		has_country_modifier = lake_federation_member
	}
	
	option = {
		name = lake.30.a
		ai_chance = { factor = 100 }
		hidden_effect = { change_variable = { lakeMilitary = 1 } }
		custom_tooltip = federation_military_tooltip
		hidden_effect = { set_country_flag = federation_mil_article_1 }
	}
	option = {
		name = lake.30.b
		ai_chance = { factor = 100 }
		hidden_effect = { change_variable = { lakeIndustrial = 1 } }
		custom_tooltip = federation_industrial_tooltip
		hidden_effect = { set_country_flag = federation_industry_article_1 }
	}
	option = {
		name = lake.30.c
		ai_chance = { factor = 100 }
		hidden_effect = { change_variable = { lakeTrade = 1 } }
		custom_tooltip = federation_trade_tooltip
		hidden_effect = { set_country_flag = federation_trade_article_1 }
	}
}

#Place of the Banks
country_event = {
	id = lake.31
	title = lake.31.t
	desc = lake.31.d
	picture = STREET_SPEECH_eventPicture
	
	is_triggered_only = yes
	
	trigger = {
		has_country_modifier = lake_federation_member
	}
	
	option = {
		name = lake.31.a
		ai_chance = { factor = 100 }
		hidden_effect = { change_variable = { lakeMilitary = 1 } }
		custom_tooltip = federation_military_tooltip
		hidden_effect = { set_country_flag = federation_mil_article_2 }
	}
	option = {
		name = lake.31.b
		ai_chance = { factor = 100 }
		hidden_effect = { change_variable = { lakeIndustrial = 1 } }
		custom_tooltip = federation_industrial_tooltip
		hidden_effect = { set_country_flag = federation_industry_article_2 }
	}
	option = {
		name = lake.31.c
		ai_chance = { factor = 100 }
		hidden_effect = { change_variable = { lakeTrade = 1 } }
		custom_tooltip = federation_trade_tooltip
		hidden_effect = { set_country_flag = federation_trade_article_2 }
	}
}

#Landlords
country_event = {
	id = lake.32
	title = lake.32.t
	desc = lake.32.d
	picture = STREET_SPEECH_eventPicture
	
	is_triggered_only = yes
	
	trigger = {
		has_country_modifier = lake_federation_member
	}
	
	option = {
		name = lake.32.a
		ai_chance = { factor = 100 }
		hidden_effect = { change_variable = { lakeMilitary = 1 } }
		custom_tooltip = federation_military_tooltip
		hidden_effect = { set_country_flag = federation_mil_article_3 }
	}
	option = {
		name = lake.32.b
		ai_chance = { factor = 100 }
		hidden_effect = { change_variable = { lakeIndustrial = 1 } }
		custom_tooltip = federation_industrial_tooltip
		hidden_effect = { set_country_flag = federation_industry_article_3 }
	}
	option = {
		name = lake.32.c
		ai_chance = { factor = 100 }
		hidden_effect = { change_variable = { lakeTrade = 1 } }
		custom_tooltip = federation_trade_tooltip
		hidden_effect = { set_country_flag = federation_trade_article_3 }
	}
}

#the Guilds
country_event = {
	id = lake.33
	title = lake.33.t
	desc = lake.33.d
	picture = STREET_SPEECH_eventPicture
	
	is_triggered_only = yes
	
	trigger = {
		has_country_modifier = lake_federation_member
	}
	
	option = {
		name = lake.33.a
		ai_chance = { factor = 100 }
		hidden_effect = { change_variable = { lakeMilitary = 1 } }
		custom_tooltip = federation_military_tooltip
		hidden_effect = { set_country_flag = federation_mil_article_4 }
	}
	option = {
		name = lake.33.b
		ai_chance = { factor = 100 }
		hidden_effect = { change_variable = { lakeIndustrial = 1 } }
		custom_tooltip = federation_industrial_tooltip
		hidden_effect = { set_country_flag = federation_industry_article_4 }
	}
	option = {
		name = lake.33.c
		ai_chance = { factor = 100 }
		hidden_effect = { change_variable = { lakeTrade = 1 } }
		custom_tooltip = federation_trade_tooltip
		hidden_effect = { set_country_flag = federation_trade_article_4 }
	}
}

#The National Army
country_event = {
	id = lake.34
	title = lake.34.t
	desc = lake.34.d
	picture = STREET_SPEECH_eventPicture
	
	is_triggered_only = yes
	
	trigger = {
		has_country_modifier = lake_federation_member
	}
	
	option = {
		name = lake.34.a
		ai_chance = { factor = 100 }
		hidden_effect = { change_variable = { lakeMilitary = 1 } }
		custom_tooltip = federation_military_tooltip
		hidden_effect = { set_country_flag = federation_mil_article_5 }
	}
	option = {
		name = lake.34.b
		ai_chance = { factor = 100 }
		hidden_effect = { change_variable = { lakeIndustrial = 1 } }
		custom_tooltip = federation_industrial_tooltip
		hidden_effect = { set_country_flag = federation_industry_article_5 }
	}
	option = {
		name = lake.34.c
		ai_chance = { factor = 100 }
		hidden_effect = { change_variable = { lakeTrade = 1 } }
		custom_tooltip = federation_trade_tooltip
		hidden_effect = { set_country_flag = federation_trade_article_5 }
	}
}

#Role of the Navy
country_event = {
	id = lake.35
	title = lake.35.t
	desc = lake.35.d
	picture = STREET_SPEECH_eventPicture
	
	is_triggered_only = yes
	
	trigger = {
		has_country_modifier = lake_federation_member
	}
	
	option = {
		name = lake.35.a
		ai_chance = { factor = 100 }
		hidden_effect = { change_variable = { lakeMilitary = 1 } }
		custom_tooltip = federation_military_tooltip
		hidden_effect = { set_country_flag = federation_mil_article_6 }
	}
	option = {
		name = lake.35.b
		ai_chance = { factor = 100 }
		hidden_effect = { change_variable = { lakeIndustrial = 1 } }
		custom_tooltip = federation_industrial_tooltip
		hidden_effect = { set_country_flag = federation_industry_article_6 }
	}
	option = {
		name = lake.35.c
		ai_chance = { factor = 100 }
		hidden_effect = { change_variable = { lakeTrade = 1 } }
		custom_tooltip = federation_trade_tooltip
		hidden_effect = { set_country_flag = federation_trade_article_6 }
	}
}

#Outward Diplomacy
country_event = {
	id = lake.36
	title = lake.36.t
	desc = lake.36.d
	picture = STREET_SPEECH_eventPicture
	
	is_triggered_only = yes
	
	trigger = {
		has_country_modifier = lake_federation_member
	}
	
	option = {
		name = lake.36.a
		ai_chance = { factor = 100 }
		hidden_effect = { change_variable = { lakeMilitary = 1 } }
		custom_tooltip = federation_military_tooltip
		hidden_effect = { set_country_flag = federation_mil_article_7 }
	}
	option = {
		name = lake.36.b
		ai_chance = { factor = 100 }
		hidden_effect = { change_variable = { lakeIndustrial = 1 } }
		custom_tooltip = federation_industrial_tooltip
		hidden_effect = { set_country_flag = federation_industry_article_7 }
	}
	option = {
		name = lake.36.c
		ai_chance = { factor = 100 }
		hidden_effect = { change_variable = { lakeTrade = 1 } }
		custom_tooltip = federation_trade_tooltip
		hidden_effect = { set_country_flag = federation_trade_article_7 }
	}
}

#Fate of the Conquered
country_event = {
	id = lake.37
	title = lake.37.t
	desc = lake.37.d
	picture = STREET_SPEECH_eventPicture
	
	is_triggered_only = yes
	
	trigger = {
		has_country_modifier = lake_federation_member
	}
	
	option = {
		name = lake.37.a
		ai_chance = { factor = 100 }
		hidden_effect = { change_variable = { lakeMilitary = 1 } }
		custom_tooltip = federation_military_tooltip
		hidden_effect = { set_country_flag = federation_mil_article_8 }
	}
	option = {
		name = lake.37.b
		ai_chance = { factor = 100 }
		hidden_effect = { change_variable = { lakeIndustrial = 1 } }
		custom_tooltip = federation_industrial_tooltip
		hidden_effect = { set_country_flag = federation_industry_article_8 }
	}
	option = {
		name = lake.37.c
		ai_chance = { factor = 100 }
		hidden_effect = { change_variable = { lakeTrade = 1 } }
		custom_tooltip = federation_trade_tooltip
		hidden_effect = { set_country_flag = federation_trade_article_8 }
	}
}

#The Constitution
country_event = {
	id = lake.38
	title = lake.38.t
	desc = lake.38.d
	picture = STREET_SPEECH_eventPicture
	
	is_triggered_only = yes
	
	trigger = {
		has_country_modifier = lake_federation_member
	}
	option = {
		name = lake.38.a
		ai_chance = { factor = 100 }
		hidden_effect = { set_country_flag = lake_the_constitution }
		add_prestige = 20
		if = {
			limit = {
				is_variable_equal = { which = lakeMilitary which = lakeIndustrial }
				check_variable = { which = lakeMilitary which = lakeTrade }
			}
			add_country_modifier = {
				name = guns_of_the_lake
				duration = -1
			}
		}
		else_if = {
			limit = {
				is_variable_equal = { which = lakeMilitary which = lakeTrade }
				check_variable = { which = lakeMilitary which = lakeIndustrial }
			}
			add_country_modifier = {
				name = citizens_of_the_lake
				duration = -1
			}
		}
		else_if = {
			limit = {
				is_variable_equal = { which = lakeIndustrial which = lakeTrade }
				check_variable = { which = lakeIndustrial which = lakeMilitary }
			}
			add_country_modifier = {
				name = childrens_of_the_lake
				duration = -1
			}
		}
		else_if = {
			limit = {
				check_variable = { which = lakeIndustrial which = lakeMilitary }
				check_variable = { which = lakeIndustrial which = lakeTrade }
			}
			add_country_modifier = {
				name = workers_of_the_lake
				duration = -1
			}
		}
		else_if = {
			limit = {
				check_variable = { which = lakeMilitary which = lakeIndustrial }
				check_variable = { which = lakeMilitary which = lakeTrade }
			}
			add_country_modifier = {
				name = soldiers_of_the_lake
				duration = -1
			}
		}
		else_if = {
			limit = {
				check_variable = { which = lakeTrade which = lakeIndustrial }
				check_variable = { which = lakeTrade which = lakeMilitary }
			}
			add_country_modifier = {
				name = traders_of_the_lake
				duration = -1
			}
		}
	}
}
###Federation Disbanded
country_event = {
	id = lake.39
	title = lake.39.t
	desc = lake.39.d
	picture = STREET_SPEECH_eventPicture
	
	is_triggered_only = yes
	
	trigger = {
		has_country_modifier = lake_federation_member
	}
	
	immediate = {
		remove_country_modifier = lake_federation_member
	}
	
	option = {
		name = lake.39.a
		ai_chance = { factor = 100 }
		add_prestige = -20
		swap_non_generic_missions = yes
		hidden_effect = { clear_federation_global_flag = yes }
	}
}

#[Root] is the new Federation Leader
country_event = {
	id = lake.40
	title = lake.40.t
	desc = lake.40.d
	picture = STREET_SPEECH_eventPicture
	major = yes
	is_triggered_only = yes
	
	major_trigger = { has_country_modifier = lake_federation_member }
	trigger = {
		always = yes
	}
	
	option = {
		name = lake.40.a
		ai_chance = { factor = 100 }
		add_prestige = 5
	}
}

#Zabyos'tlar Great Split
country_event = {
    id = lake.41
    title = lake.41.t
    desc = lake.41.d
    picture = GREAT_BUILDING_eventPicture
    
    fire_only_once = yes
    
    mean_time_to_happen = {
        years = 20
        
        modifier = {
            factor = 0.8
            5304 = {
                development = 35
            }
        }
        modifier = {
            factor = 0.5
            5304 = {
                development = 40
            }
        }
        modifier = {
            factor = 0.25
            5304 = {
                development = 45
            }
        }
    }
    
    trigger = {
        owns_core_province = 5304
        5304 = {
            development = 30
        }
    }
    
    #These things happen
    option = {
        name = lake.41.a
        ai_chance = { factor = 100 }
        5304 = {
            rename_capital = "The Sky Walk"
			hidden_effect = { set_province_flag = zabyos_flag }
			hidden_effect = { 
				add_great_project = zabyos_canal
				add_construction_progress = 1
				add_great_project = tlar_canal
				add_construction_progress = 1
			}
        }
    }
}

#Federal Capital
country_event = {
	id = lake.104
	title = lake.104.t
	desc = {
		trigger = { 
			capital_scope = {
				NOT = { 
					province_id = 5290
					province_id = 5304
					province_id = 5256
					province_id = 5226
					province_id = 5239
				}
			}
		}
		desc = lake.104.d.1
	}
	desc = {
		trigger = { 
			capital_scope = {
				OR = {
					province_id = 5290
					province_id = 5304
					province_id = 5256
					province_id = 5226
					province_id = 5239
				}
			}
		}
		desc = lake.104.d.2
	}
	picture = BIG_BOOK_eventPicture
	
	fire_only_once = yes
	mean_time_to_happen = {
		years = 50
		
		modifier = {
			factor = 0.75
			stability = 1
		}
		modifier = {
			factor = 0.5
			stability = 2
		}
		modifier = {
			factor = 0.3
			stability = 3
		}
	}
	trigger = {
		tag = J33
		NOT = { has_country_flag = federal_capital_chosen }
	}
	
	#Raattakod
	option = {
		name = lake.104.a
		ai_chance = { factor = 100 }
		set_country_flag = federal_capital_chosen
		5290 = {
			move_capital_effect = yes 
			add_permanent_province_modifier = {
				name = halls_of_valor
				duration = -1
			}
			rename_capital = "The Halls of Valor"
			add_base_tax = 2
			add_base_production = 2
			add_base_manpower = 3
		}
	}
	#Zabyos'tlar
	option = {
		name = lake.104.b
		ai_chance = { factor = 100 }
		set_country_flag = federal_capital_chosen
		5304 = {
			move_capital_effect = yes 
			add_permanent_province_modifier = {
				name = castle_in_the_sky
				duration = -1
			}
			rename_capital = "Castle in the Sky"
			add_base_tax = 2
			add_base_production = 3
			add_base_manpower = 2
		}
	}
	#Qarshtuluu
	option = {
		name = lake.104.c
		ai_chance = { factor = 100 }
		set_country_flag = federal_capital_chosen
		5256 = {
			move_capital_effect = yes 
			add_permanent_province_modifier = {
				name = gem_of_the_islands
				duration = -1
			}
			rename_capital = "Gem of the Isles"
			add_base_tax = 3
			add_base_production = 2
			add_base_manpower = 2
		}
	}
	#Zurkanrek
	option = {
		name = lake.104.d
		ai_chance = { factor = 100 }
		set_country_flag = federal_capital_chosen
		5226 = {
			move_capital_effect = yes 
			add_permanent_province_modifier = {
				name = star_of_the_east
				duration = -1
			}
			rename_capital = "Star of the East"
			add_base_tax = 3
			add_base_production = 3
			add_base_manpower = 1
		}
	}
	#Ultakal
	option = {
		name = lake.104.e
		ai_chance = { factor = 100 }
		set_country_flag = federal_capital_chosen
		5239 = {
			move_capital_effect = yes 
			add_permanent_province_modifier = {
				name = city_of_gold_and_smog
				duration = -1
			}
			rename_capital = "City of Gold and Smog"
			add_base_tax = 1
			add_base_production = 5
			add_base_manpower = 1
		}
	}
	#Don't Move It
	option = {
		name = lake.104.f
		ai_chance = { factor = 100 }
		trigger = {
			capital_scope = {
					NOT = { 
						province_id = 5290
						province_id = 5304
						province_id = 5256
						province_id = 5226
						province_id = 5239
						}	
					}
				}
		set_country_flag = federal_capital_chosen
		capital_scope = {
			move_capital_effect = yes 
			add_permanent_province_modifier = {
				name = pride_of_the_federation
				duration = -1
			}
			rename_capital = "Capital of the Federation"
			add_base_tax = 3
			add_base_production = 2
			add_base_manpower = 2
		}
	}
}

#Explain the Ultakal Decree
country_event = {
	id = lake.42
	title = lake.42.t
	desc = {
		trigger = { tag = J06 }
		desc = lake.42.d
	}
	desc = {
		trigger = { tag = J07 }
		desc = lake.42.dd
	}
	picture = STREET_SPEECH_eventPicture
	
	is_triggered_only = yes
	trigger = {
		NOT = { has_country_flag = initialized_ultakal }
	}
	
	immediate = {
		hidden_effect = { set_global_flag = federation_golden_island_timer }
		hidden_effect = { set_country_flag = initialized_ultakal }
		hidden_effect = { J07 = { set_country_flag = ultakal_owner } }
	}
	
	option = {
		name = lake.42.a
		ai_chance = { factor = 100 }
		add_country_modifier = {
			name = ultakal_decree
			duration = -1
		}
	}
}

#Apply the Ultakal Decree
country_event = {
	id = lake.43
	title = lake.43.t
	desc = lake.43.d
	picture = STREET_SPEECH_eventPicture
	
	mean_time_to_happen = {
		days = 1
	}
	trigger = {
		has_country_modifier = ultakal_decree
		owns = 5239
		has_country_modifier = lake_federation_member
		OR = { tag = J06 tag = J07 }
		J06 = { exists = yes }
		J07 = { exists = yes }
		had_global_flag = {
			flag = federation_golden_island_timer
			days = 1825 #Should be 1825, lower for test purposes
		}
		NOT = { has_global_flag = federation_crisis_goldisland }
	}
	
	
	
	immediate = {
		hidden_effect = { set_global_flag = federation_golden_island_timer }
	}
	
	after = {
		hidden_effect = { set_global_flag = federation_golden_island_timer }
	}
	
	#Give them the province
	option = {
		name = lake.43.a
		ai_chance = { 
			factor = 95
			
			modifier = {
				factor = 10
				ruler_has_personality = righteous_personality
			}
			
			modifier = {
				factor = 1.5
				ruler_has_personality = kind_hearted_personality
			}
			
			modifier = {
				factor = 1.5
				ruler_has_personality = lawgiver_personality
			}
		}
		add_prestige = 5
		hidden_effect = { clr_country_flag = ultakal_owner }
		if = {
			limit = { tag = J06 }
			5239 = {
				remove_core = J06
				cede_province = J07
				add_core = J07
			}
			hidden_effect = { J07 = { set_country_flag = ultakal_owner country_event = { id = goldisland.18 } } }
		}
		else = {
			5239 = {
				remove_core = J07
				cede_province = J06
				add_core = J06
			}
			hidden_effect = { J06 = { set_country_flag = ultakal_owner country_event = { id = goldisland.18 } } }
		}
	}
	
	#Keep it
	option = {
		name = lake.43.b
		ai_chance = { 
			factor = 5
			
			modifier = {
				factor = 100
				ruler_has_personality = malevolent_personality
			}
			
			modifier = {
				factor = 5
				ruler_has_personality = fierce_negotiator_personality
			}
			
			modifier = {
				factor = 3
				ruler_has_personality = drunkard_personality
			}
			
			modifier = {
				factor = 4
				ruler_has_personality = greedy_personality
			}
		}
		trigger = { 
			NOT = { has_global_flag = federation_crisis }
			any_country = { is_lake_federation_leader = yes }
		}
		lake_federation_lose_2_points = yes
		J06 = { remove_country_modifier = ultakal_decree }
		J07 = { remove_country_modifier = ultakal_decree }
		custom_tooltip = break_ultakal_decree_tooltip
		hidden_effect = {
			J06 = { set_country_flag = ultakal_owner }
			J07 = { set_country_flag = ultakal_owner }
			set_country_flag = unlawful_ultakal
			clr_country_flag = ultakal_owner
			country_event = { id = goldisland.0 }
		}
	}
}

#Ideas melting pot
country_event = {
	id = lake.44
	title = lake.44.t
	desc = lake.44.d
	picture = STREET_SPEECH_eventPicture
	
	is_triggered_only = yes
	trigger = {
		always = yes
	}
	
	immediate = {
	}
	
	option = {
		name = lake.44.a
		ai_chance = { factor = 100 }
		add_country_modifier = {
			name = lake_ideas_melting_pot
			duration = -1
		}
	}
}

#The Wandering Band
country_event = {
	id = lake.45
	title = lake.45.t
	desc = lake.45.d
	picture = STREET_SPEECH_eventPicture
	major = yes
	major_trigger = { has_country_modifier = lake_federation_member }
	
	is_triggered_only = yes
	trigger = {
		always = yes
	}
	
	immediate = {
		hidden_effect = { set_global_flag = lake_wandering_band }
	}
	
	option = {
		name = lake.45.a
		ai_chance = { factor = 100 }
		add_prestige = 15
		country_event = { id = lake.46 }
	}
}

#The Wandering Band In [Root.GetName]
country_event = {
	id = lake.46
	title = lake.46.t
	desc = lake.46.d
	picture = STREET_SPEECH_eventPicture
	goto = province
	trigger = {
		has_country_modifier = lake_federation_member
		had_global_flag = {
			flag = lake_wandering_band
			days = 730
		}
	}
	
	immediate = {
		hidden_effect = { set_global_flag = lake_wandering_band }
		hidden_effect = { random_owned_province = { save_event_target_as = province } }
		hidden_effect = {
			random_list = {
				25 = { set_country_flag = wandering_band_1 }
				25 = { set_country_flag = wandering_band_2 }
				25 = { set_country_flag = wandering_band_3 }
				25 = { set_country_flag = wandering_band_4 }
			}
		}
	}
	
	after = {
		hidden_effect = {
			clr_country_flag = wandering_band_1
			clr_country_flag = wandering_band_2
			clr_country_flag = wandering_band_3
			clr_country_flag = wandering_band_4
		}
	}
	
	#We benefit from them!
	option = {
		name = lake.46.a
		ai_chance = { factor = 100 }
		trigger_switch = {
			on_trigger = has_country_flag
			
			wandering_band_1 = { capital_scope = { random_list = { 50 = { add_base_tax = 1 } 50 = { add_base_production = 1 } } } }
			wandering_band_2 = { add_splendor = 25 }
			wandering_band_3 = { add_prestige = 5 }
			wandering_band_4 = { random_list = { 33 = { add_years_of_income = 0.2 } 33 = { add_years_of_income = 0.4 } 33 = { add_years_of_income = 0.6 } } }
		}
	}
}

#Anti piracy act
country_event = {
	id = lake.47
	title = lake.47.t
	desc = lake.47.d
	picture = STREET_SPEECH_eventPicture
	
	is_triggered_only = yes
	trigger = {
		always = yes
	}
	
	immediate = {
		hidden_effect = { set_global_flag = lake_wandering_band }
	}
	
	#Sign it
	option = {
		name = lake.47.a
		ai_chance = { factor = 100 }
		lake_federation_gain_1_points = yes
		add_country_modifier = {
			name = lake_anti_piracy_act
			duration = -1
		}
	}
	#Don't
	option = {
		name = lake.47.b
		ai_chance = { factor = 10 }
		lake_federation_lose_2_points = yes
		add_country_modifier = {
			name = lake_cover_piracy
			duration = -1
		}
	}
}

#Caravan act
country_event = {
	id = lake.48
	title = lake.48.t
	desc = lake.48.d
	picture = STREET_SPEECH_eventPicture
	major = yes
	major_trigger = { has_country_modifier = lake_federation_member }
	
	is_triggered_only = yes
	trigger = {
		always = yes
	}
	
	immediate = {
		hidden_effect = { set_global_flag = lake_wandering_band }
	}
	
	#Sign it
	option = {
		name = lake.48.a
		ai_chance = { factor = 100 }
		lake_federation_gain_1_points = yes
		add_country_modifier = {
			name = lake_caravan_act
			duration = -1
		}
	}
	#Don't
	option = {
		name = lake.48.b
		ai_chance = { factor = 10 }
		lake_federation_lose_2_points = yes
		add_country_modifier = {
			name = lake_unrestricted_trade_route
			duration = -1
		}
	}
}

#From call for help against the centaur
country_event = {
	id = lake.49
	title = lake.49.t
	desc = lake.49.d
	picture = STREET_SPEECH_eventPicture
	
	hidden = yes
	is_triggered_only = yes
	trigger = {
		always = yes
	}
	
	immediate = {
		log = "[From.GetName] call for help from centaur attack"
	}
	
	#Help them
	option = {
		name = lake.49.a
		ai_chance = { factor = 100 }
		every_known_country = {
			limit = { has_country_modifier = federation_fighter }
			country_event = { id = lake.50 }
		}
	}
}

#From call for help against the centaur
country_event = {
	id = lake.50
	title = lake.50.t
	desc = lake.50.d
	picture = STREET_SPEECH_eventPicture
	goto = province
	is_triggered_only = yes
	trigger = {
		NOT = { is_subject_of_type = centaur_dominion }
	}
	
	immediate = {
		hidden_effect = {
			FROM = { capital_scope = { save_event_target_as = province } }
		}
	}
	
	#Help them
	option = {
		name = lake.50.a
		ai_chance = { 
			factor = 100
			
			modifier = {
				factor = 0
				is_rival = FROM
			}
			
			modifier = {
				factor = 0
				is_bankrupt = yes
			}
		}
		lake_federation_gain_1_points = yes
		add_prestige = 5
		join_all_defensive_wars_of = FROM
	}
	#Don't help them
	option = {
		name = lake.50.b
		ai_chance = { 
			factor = 10
			
			modifier = {
				factor = 10
				is_at_war = yes
			}
			
			modifier = {
				factor = 10
				war_exhaustion = 8
			}
			modifier = {
				factor = 15
				war_exhaustion = 5
			}
			modifier = {
				factor = 20
				war_exhaustion = 15
			}
			
			modifier = {
				factor = 10
				NOT = { stability = 0 }
			}
			
			modifier = {
				factor = 10
				NOT = { manpower_percentage = 0.2 }
			}
		}
		lake_federation_lose_2_points = yes
		add_prestige = -5
	}
}

#Troublemaker from FROM
country_event = {
	id = lake.51
	title = lake.51.t
	desc = lake.51.d
	picture = STREET_SPEECH_eventPicture
	goto = 5284
	is_triggered_only = yes
	trigger = {
		always = yes
	}
	
	immediate = {
	}
	
	after = {
		hidden_effect = {
			FROM = {
				clr_country_flag = manpower_1
				clr_country_flag = manpower_2
				clr_country_flag = manpower_3
				clr_country_flag = manpower_4
			}
		}
	}
	
	#Accept them
	option = {
		name = lake.51.a
		ai_chance = { 
			factor = 100
			
			modifier = {
				factor = 0
				is_rival = FROM
			}
			
			modifier = {
				factor = 0
				5284 = {
					unrest = 5
				}
			}
			
			modifier = {
				factor = 10
				is_at_war = yes
			}
		}
		if = {
			limit = { FROM = { has_country_flag = manpower_1 } }
			add_manpower = 0.5
		}
		else_if = {
			limit = { FROM = { has_country_flag = manpower_2 } }
			add_manpower = 1
			5284 = {
				add_unrest = 1
			}
		}
		else_if = {
			limit = { FROM = { has_country_flag = manpower_3 } }
			add_manpower = 1.5
			5284 = {
				add_unrest = 1
			}
		}
		else_if = {
			limit = { FROM = { has_country_flag = manpower_4 } }
			add_manpower = 2
			5284 = {
				add_unrest = 2
				area = { add_unrest = 1 }
			}
		}
	}
	#Send them to die against the centaur
	option = {
		name = lake.51.b
		ai_chance = { 
			factor = 10
			
			modifier = {
				factor = 10
				is_at_war = yes
			}
			
			modifier = {
				factor = 5
				war_exhaustion = 8
			}
			
			modifier = {
				factor = 50
				NOT = { stability = 0 }
			}
		}
	}
}

#Temple of Kalyin
country_event = {
	id = lake.52
	title = lake.52.t
	desc = lake.52.d
	picture = RELIGIOUS_CONVERSION_eventPicture
	goto = 5290
	fire_only_once = yes
	is_triggered_only = yes
	
	trigger = { always = yes }
	
	#For the Glory of Kalyin
	option = {
		name = lake.52.a
		ai_chance = { factor = 100 }
		#remove_country_modifier = building_temple
		custom_tooltip = temple_kalyin
		5290 = {
			add_province_triggered_modifier = temple_of_kalyin
		}
		add_prestige = 15
	}
}

#Guns tournament
country_event = {
	id = lake.53
	title = lake.53.t
	desc = lake.53.d
	picture = RELIGIOUS_CONVERSION_eventPicture
	
	is_triggered_only = yes
	
	trigger = { always = yes }
	
	option = {
		name = lake.53.a
		ai_chance = { factor = 100 }
		random_list = {
			75 = { country_event = { id = lake.54 days = 365 random = 365 } }
			25 = { country_event = { id = lake.55 days = 365 random = 365 } }
		}
		hidden_effect = {
			random_list = {
				20 = { country_event = { id = lake.56 days = 125 random = 30 } }
				20 = { country_event = { id = lake.57 days = 125 random = 30 } }
				20 = { country_event = { id = lake.58 days = 125 random = 30 } }
				20 = { country_event = { id = lake.59 days = 125 random = 30 } }
				1 = { country_event = { id = lake.60 days = 125 random = 30 } }
			}
		}
	}
}

#Successful tournament
country_event = {
	id = lake.54
	title = lake.54.t
	desc = lake.54.d
	picture = RELIGIOUS_CONVERSION_eventPicture
	
	is_triggered_only = yes
	
	trigger = { always = yes }
	
	option = {
		name = lake.54.a
		ai_chance = { factor = 100 }
		add_stability_or_adm_power = yes
	}
}

#Shitty tournament
country_event = {
	id = lake.55
	title = lake.55.t
	desc = lake.55.d
	picture = RELIGIOUS_CONVERSION_eventPicture
	
	is_triggered_only = yes
	
	trigger = { always = yes }
	
	option = {
		name = lake.55.a
		ai_chance = { factor = 100 }
		reduce_stability_or_adm_power = yes
	}
}

#Great Commandant appear during the tournament
country_event = {
	id = lake.56
	title = lake.56.t
	desc = lake.56.d
	picture = RELIGIOUS_CONVERSION_eventPicture
	
	is_triggered_only = yes
	
	trigger = { always = yes }
	
	option = {
		name = lake.56.a
		ai_chance = { factor = 100 }
		create_general = { tradition = 80 add_fire = 1 }
	}
}

#Old champion returning
country_event = {
	id = lake.57
	title = lake.57.t
	desc = lake.57.d
	picture = RELIGIOUS_CONVERSION_eventPicture
	
	is_triggered_only = yes
	
	trigger = { always = yes }
	
	option = {
		name = lake.57.a
		ai_chance = { factor = 100 }
		random = {
			chance = 50
			add_stability_or_adm_power = yes
		}
		add_prestige = 10
	}
}

#Incredibly profitable
country_event = {
	id = lake.58
	title = lake.58.t
	desc = lake.58.d
	picture = RELIGIOUS_CONVERSION_eventPicture
	
	is_triggered_only = yes
	
	trigger = { always = yes }
	
	option = {
		name = lake.58.a
		ai_chance = { factor = 100 }
		add_years_of_income = 0.8
	}
}

#Gunpowder stockpile explode
country_event = {
	id = lake.59
	title = lake.59.t
	desc = lake.59.d
	picture = RELIGIOUS_CONVERSION_eventPicture
	
	is_triggered_only = yes
	
	trigger = { always = yes }
	
	option = {
		name = lake.59.a
		ai_chance = { factor = 100 }
		capital_scope = { 
			random_list = {
				33 = { add_base_tax = -1 }
				33 = { add_base_manpower = -1 }
				33 = { add_base_production = -1 }
			}
		}
		reduce_stability_or_adm_power = yes
	}
}

#Lost Bullet
country_event = {
	id = lake.60
	title = lake.60.t
	desc = lake.60.d
	picture = RELIGIOUS_CONVERSION_eventPicture
	
	is_triggered_only = yes
	
	trigger = { always = yes }
	
	option = {
		name = lake.60.a
		ai_chance = { factor = 100 }
		kill_ruler = yes
	}
}

#We are obligated to pay for the extermination of all centaur in our territory
country_event = {
	id = lake.61
	title = lake.61.t
	desc = lake.61.d
	picture = RELIGIOUS_CONVERSION_eventPicture
	major = yes
	is_triggered_only = yes
	
	trigger = {
		NOT = { has_country_flag = debug_event_flag }
	}
	
	immediate = {
		hidden_effect = { set_country_flag = debug_event_flag }
	}
	
	after = {
		hidden_effect = { clr_country_flag = debug_event_flag }
	}
	
	option = {
		name = lake.61.a
		ai_chance = { factor = 100 }
		reduce_stability_or_adm_power = yes
		every_owned_province = {
			limit = { has_any_centaur_pop_trigger = yes }
			kill_all_centaur = yes
		}
	}
}

#Fuck the Ascension bug, and thanks to everyone who helped fixed it, y'all awesome
country_event = {
	id = lake.62
	title = lake.62.t
	desc = lake.62.d
	picture = RELIGIOUS_CONVERSION_eventPicture
	
	
	mean_time_to_happen = {
		years = 600
	}
	fire_only_once = yes
	
	trigger = {
		ai = no
	}
	
	option = {
		name = lake.62.a
		ai_chance = { factor = 100 }
		add_country_modifier = {
			name = the_ascension
			duration = -1
		}
		hidden_effect = { 
			random_list = {
				75 = { set_country_flag = the_ascension }
				25 = { }
			}
		}
	}
	
	option = {
		name = lake.62.b
		ai_chance = { factor = 100 }
		add_prestige = -10
	}
}

country_event = {
	id = lake.63
	title = lake.63.t
	desc = lake.63.d
	picture = RELIGIOUS_CONVERSION_eventPicture
	
	
	mean_time_to_happen = {
		years = 15
		
		modifier = {
			factor = 0.1
			had_country_flag = {
				flag = the_ascension
				days = 3650
			}
		}
	}
	
	fire_only_once = yes
	
	trigger = {
		has_country_flag = the_ascension
		any_owned_province = {
			is_capital = no
			development = 15
		}
	}
	
	option = {
		name = lake.63.a
		ai_chance = { factor = 100 }
		add_stability_or_adm_power = yes
		remove_country_modifier = the_ascension
		random_owned_province = {
			limit = { is_capital = no development = 15 }
			add_base_tax = -2
			add_base_production = -2
			add_base_manpower = -2
		}
	}
}

#Helping our brethen
country_event = {
	id = lake.64
	title = lake.64.t
	desc = lake.64.d
	picture = RELIGIOUS_CONVERSION_eventPicture
	goto = province
	
	
	mean_time_to_happen = {
		months = 6
	}
	
	trigger = {
		has_country_modifier = federation_subventionner
		OR = {
			NOT = { has_country_flag = recently_helped_federation }
			had_country_flag = {
				flag = recently_helped_federation
				days = 1825
			}
		}
		is_subject = no
		any_known_country = {
			has_country_modifier = federation_fighter
			OR = {
				is_in_war = { attacker_leader = THIS }
				is_in_war = { defender_leader = THIS }
			}
			any_known_country = {
				war_with = PREV
				has_country_modifier = centaur_administration
			}
		}
	}
	
	immediate = {
		hidden_effect = {
			random_known_country = {
				limit = {
					has_country_modifier = federation_fighter
					any_known_country = { war_with = PREV has_country_modifier = centaur_administration }
				}
				save_event_target_as = country
				capital_scope = { save_event_target_as = province }
			}
		}
	}
	
	after = {
		hidden_effect = {
			set_country_flag = recently_helped_federation
		}
	}
	
	#Send them help
	option = {
		name = lake.64.a
		ai_chance = { 
			factor = 100
			
			modifier = {
				factor = 0
				
				OR = {
					is_at_war = yes
					is_bankrupt = yes
				}
			}
		}
		lake_federation_gain_1_points = yes
		if = {
			limit = { manpower = 2 }
			add_treasury = -50
			add_manpower = -2
		}
		else = {
			add_treasury = -100
		}
		event_target:country = {
			country_event = { id = lake.65 }
		}
		add_country_modifier = {
			name = recently_helped_federation
			duration = 1825
		}
	}
	
	#Don't
	option = {
		name = lake.64.b
		ai_chance = { factor = 100 }
	}
}

#Help from FROM
country_event = {
	id = lake.65
	title = lake.65.t
	desc = lake.65.d
	picture = RELIGIOUS_CONVERSION_eventPicture
	
	
	is_triggered_only = yes
	trigger = {
		any_owned_province = {
			controlled_by = ROOT
		}
	}
	
	immediate = {
		hidden_effect = {
			random_owned_province = {
				limit = { controlled_by = ROOT }
				save_event_target_as = province
			}
			capital_scope = {
				if = {
					limit = { controlled_by = ROOT }
					save_event_target_as = province
				}
			}
		}
	}
	
	#Send them help
	option = {
		name = lake.65.a
		ai_chance = { factor = 100 }
		goto = province
		add_treasury = 50
		event_target:province = {
			infantry = ROOT
			infantry = ROOT
		}
	}
}

###################
##TEST and DEBUG events
###################
#Fate of the Conquered
country_event = {
	id = lake.100
	title = lake.37.t
	desc = lake.37.d
	picture = STREET_SPEECH_eventPicture
	
	mean_time_to_happen = {
		years = 1
	}
	hidden = yes
	fire_only_once = yes
	
	trigger = {
		tag = J33
		ai = yes
		owns = 5295
	}
	
	option = {
		name = lake.37.a
		ai_chance = { factor = 100 }
		5295 = { move_capital_effect = yes }
	}
}

#Not done yet event for traders modifier
country_event = {
	id = lake.101
	title = lake.101.t
	desc = lake.101.d
	picture = STREET_SPEECH_eventPicture
	
	is_triggered_only = yes
	
	trigger = {
		tag = J33
	}
	
	#Guns
	option = {
		name = lake.101.a
		ai_chance = { factor = 100 }
		remove_country_modifier = traders_of_the_lake
		remove_country_modifier = guns_of_the_lake
		remove_country_modifier = citizens_of_the_lake
		remove_country_modifier = childrens_of_the_lake
		remove_country_modifier = workers_of_the_lake
		remove_country_modifier = soldiers_of_the_lake
		add_country_modifier = {
			name = guns_of_the_lake
			duration = -1
		}
		swap_non_generic_missions = yes
	}
	#Childrens
	option = {
		name = lake.101.b
		ai_chance = { factor = 100 }
		remove_country_modifier = traders_of_the_lake
		remove_country_modifier = guns_of_the_lake
		remove_country_modifier = citizens_of_the_lake
		remove_country_modifier = childrens_of_the_lake
		remove_country_modifier = workers_of_the_lake
		remove_country_modifier = soldiers_of_the_lake
		add_country_modifier = {
			name = childrens_of_the_lake
			duration = -1
		}
		swap_non_generic_missions = yes
	}
	#workers
	option = {
		name = lake.101.c
		ai_chance = { factor = 100 }
		remove_country_modifier = traders_of_the_lake
		remove_country_modifier = guns_of_the_lake
		remove_country_modifier = citizens_of_the_lake
		remove_country_modifier = childrens_of_the_lake
		remove_country_modifier = workers_of_the_lake
		remove_country_modifier = soldiers_of_the_lake
		add_country_modifier = {
			name = workers_of_the_lake
			duration = -1
		}
		swap_non_generic_missions = yes
	}
	#Soldiers
	option = {
		name = lake.101.e
		ai_chance = { factor = 100 }
		remove_country_modifier = traders_of_the_lake
		remove_country_modifier = guns_of_the_lake
		remove_country_modifier = citizens_of_the_lake
		remove_country_modifier = childrens_of_the_lake
		remove_country_modifier = workers_of_the_lake
		remove_country_modifier = soldiers_of_the_lake
		add_country_modifier = {
			name = soldiers_of_the_lake
			duration = -1
		}
		swap_non_generic_missions = yes
	}
	
	#I'm fine
	option = {
		name = lake.101.f
		ai_chance = { factor = 100 }
	}
}

country_event = {
	id = lake.102
	title = lake.102.t
	desc = lake.102.d
	picture = STREET_SPEECH_eventPicture
	
	is_triggered_only = yes
	hidden = yes
	
	trigger = {
		has_country_modifier = lake_federation_member
	}
	
	option = {
		name = lake.102.a
		ai_chance = { factor = 100 }
		if = {
			limit = {
				NOT = {
					calc_true_if = {
						all_known_country = {
							check_variable = {
								which = FederationPoints
								which = PREV
							}
							is_subject = no
						}
						amount = 1
					}
				}
				is_subject = no
			}
			set_country_flag = federation_leader
			country_event = { id = lake.40 }
		}
		else = {
			clr_country_flag = federation_leader
		}
	}
}

country_event = {
	id = lake.103
	title = lake.103.t
	desc = lake.103.d
	picture = STREET_SPEECH_eventPicture
	
	hidden = yes
	fire_only_once = yes
	
	trigger = {
		has_country_modifier = ultakal_decree
		OR = {
			AND = {
				J07 = { exists = no }
				OR = {
					tag = J06
					tag = J33
				}
			}
			AND = {
				J06 = { exists = no }
				OR = {
					tag = J07
					tag = J33
				}
			}
		}
	}
	
	option = {
		name = lake.103.a
		ai_chance = { factor = 100 }
		remove_country_modifier = ultakal_decree
	}
}

country_event = {
	id = lake.1000
	title = lake.19.t
	desc = lake.19.d
	picture = STREET_SPEECH_eventPicture
	
	is_triggered_only = yes
	
	trigger = {
		has_country_modifier = lake_federation_member
	}
	
	#finance
	option = {
		name = lake.19.a
		ai_chance = { factor = 0 }
		every_known_country = {
			random = {
				chance = 50
				change_variable = {
					which = FederationPoints
					value = 5
				}
				every_country = {
					limit = { has_country_modifier = lake_federation_member }
					change_variable = {
						which = TotalFederationPoints
						value = 5
					}
				}
			}
			random = {
				chance = 40
				change_variable = {
					which = FederationPoints
					value = 5
				}
				every_country = {
					limit = { has_country_modifier = lake_federation_member }
					change_variable = {
						which = TotalFederationPoints
						value = 5
					}
				}
			}
			random = {
				chance = 20
				change_variable = {
					which = FederationPoints
					value = 5
				}
				every_country = {
					limit = { has_country_modifier = lake_federation_member }
					change_variable = {
						which = TotalFederationPoints
						value = 5
					}
				}
			}
			random = {
				chance = 10
				change_variable = {
					which = FederationPoints
					value = 15
				}
				every_country = {
					limit = { has_country_modifier = lake_federation_member }
					change_variable = {
						which = TotalFederationPoints
						value = 15
					}
				}
			}
		}
	}
	option = {
		name = lake.19.a
		ai_chance = { factor = 40 }
		change_variable = {
			which = FederationPoints
			value = 50
		}
		every_country = {
			limit = { has_country_modifier = lake_federation_member }
			change_variable = {
				which = TotalFederationPoints
				value = 50
			}
		}
	}
	option = {
		name = lake.19.a
		ai_chance = { factor = 40 }
		lake_federation_gain_2_points = yes
	}
	option = {
		name = lake.19.a
		ai_chance = { factor = 40 }
		change_variable = { FederationPolitics = 1 }
	}
	option = {
		name = lake.19.a
		ai_chance = { factor = 40 }
		subtract_variable = { FederationPolitics = 1 }
	}
}

#Federation - The Pirate Act
country_event = {
	id = lake.1001
	title = lake.1000.t
	desc = lake.1000.d
	picture = STREET_SPEECH_eventPicture
	
	is_triggered_only = yes
	
	trigger = {
		has_country_modifier = lake_federation_member
	}
	
	option = {
		name = lake.1000.a
		ai_chance = { factor = 40 }
		random_owned_province = {
			limit = { has_port = yes }
			sea_zone = {
				create_pirate = 1
			}
		}
	}
	
	option = {
		name = lake.1000.a
		ai_chance = { factor = 40 }
		random_owned_province = {
			limit = { has_port = yes }
			create_pirate = 1
		}
	}
	option = {
		name = lake.1000.a
		ai_chance = { factor = 40 }
		random_owned_province = {
			limit = { has_port = yes }
			infantry = PIR
			infantry = PIR
			infantry = PIR
			infantry = PIR
			infantry = PIR
			infantry = PIR
			infantry = PIR
			infantry = PIR
			infantry = PIR
			infantry = PIR
			infantry = PIR
			infantry = PIR
			infantry = PIR
			infantry = PIR
			infantry = PIR
		}
	}
}

#Federation - Change View
country_event = {
	id = lake.1002
	title = lake.1002.t
	desc = lake.1002.d
	picture = STREET_SPEECH_eventPicture
	
	is_triggered_only = yes
	
	trigger = {
		always = yes
	}
	
	#Go Back
	option = {
		name = lake.1002.f
	}
	#Colourblind mode ON
	option = {
		name = lake.1002.a
		trigger = { has_country_flag = colorblind_standing NOT = { has_country_flag = simple_standing }}
		custom_tooltip = make_standing_colorblind_tooltip
		hidden_effect = { clr_country_flag = colorblind_standing 
		country_event = { id = lake.1003 } }
	}
	#Colourblind mode OFF
	option = {
		name = lake.1002.b
		trigger = { NOT = { has_country_flag = colorblind_standing } NOT = { has_country_flag = simple_standing } }
		custom_tooltip = remove_standing_colorblind_tooltip
		hidden_effect = { set_country_flag = colorblind_standing 
		country_event = { id = lake.1003 } }
	}
	#Simplistic view ON
	option = {
		name = lake.1002.c
		trigger = { has_country_flag = simple_standing }
		custom_tooltip = make_standing_simplistic_tooltip
		hidden_effect = { clr_country_flag = simple_standing 
		country_event = { id = lake.1003 } }
	}
	#Simplistic view OFF
	option = {
		name = lake.1002.e
		trigger = { NOT = { has_country_flag = simple_standing } }
		custom_tooltip = remove_standing_simplistic_tooltip
		hidden_effect = { set_country_flag = simple_standing 
		country_event = { id = lake.1003 } }
	}
}

#Federation - Change View Recursion
country_event = {
	id = lake.1003
	title = lake.1003.t
	desc = lake.1003.d
	picture = STREET_SPEECH_eventPicture
	
	is_triggered_only = yes
	hidden = yes
	
	trigger = {
		always = yes
	}
	
	#Colourblind mode ON
	option = {
		name = lake.1003.a 
		country_event = { id = lake.1002 }
	}
}